--------- beginning of /dev/log/system
--------- beginning of /dev/log/main
01-19 21:36:31.246 12305 12305 I MainActivity: onCreate event fired
01-19 21:36:40.986 12305 12305 I MainActivity: onDestroy event fired
01-19 21:36:40.986 12305 12305 E MainActivity: We're going down, Captain!!
